{
  "project_info": {
    "project_number": "346453944998",
    "firebase_url": "https://easybcn-180222-default-rtdb.europe-west1.firebasedatabase.app",
    "project_id": "easybcn-180222",
    "storage_bucket": "easybcn-180222.appspot.com"
  },
  "client": [
    {
      "client_info": {
        "mobilesdk_app_id": "1:346453944998:android:c5e28e17e44f7decc0a267",
        "android_client_info": {
          "package_name": "com.example.proyectoeasybcn"
        }
      },
      "oauth_client": [
        {
          "client_id": "346453944998-kr0i6l2n4b8627pgjs2tg2a7r2hbusd2.apps.googleusercontent.com",
          "client_type": 3
        }
      ],
      "api_key": [
        {
          "current_key": "AIzaSyDG6V_r6OrH_qqbe6Iv8Qh1BY9i3rjg8ZU"
        }
      ],
      "services": {
        "appinvite_service": {
          "other_platform_oauth_client": [
            {
              "client_id": "346453944998-kr0i6l2n4b8627pgjs2tg2a7r2hbusd2.apps.googleusercontent.com",
              "client_type": 3
            }
          ]
        }
      }
    }
  ],
  "configuration_version": "1"
}